…
2.1) Using the following exponential data transform the axis so dots
follow a straight line (diagonal)

3.1) Use the following data to create a bar chart with only one stacked
bar (`stat="identity"`, or use `geom_col()`), and fill by group (hint:
You can always map “” to a aesthetic) 3.2) Transform the y axis into
angles using `coord_polar(...)`

``` r

# BE CAREFUL WITH TRANSFORMATIONS!!
movies <- ggplot2movies::movies
mov <- movies[sample(nrow(movies), 1000), ]
mov
#> # A tibble: 1,000 × 24
#>    title     year length budget rating votes    r1    r2    r3    r4    r5    r6
#>    <chr>    <int>  <int>  <int>  <dbl> <int> <dbl> <dbl> <dbl> <dbl> <dbl> <dbl>
#>  1 T-Force   1995    105     NA    3.1    74  14.5  14.5  14.5  14.5   4.5   4.5
#>  2 Johnny …  1963    103     NA    6.6    65   4.5   0     4.5   4.5   4.5  14.5
#>  3 Hound H…  1947      7     NA    6.9    22   0     0     0     0    14.5  14.5
#>  4 Stanza …  1998     89     NA    6.8    17  14.5   0     0     0     0    24.5
#>  5 Ni liv    1957     96     NA    7.7   172   4.5   4.5   4.5   4.5   4.5   4.5
#>  6 Mother …  1938     82     NA    6.4    15   0     0     0     0     4.5  24.5
#>  7 Iron Gi…  1994     80     NA    2.2    23  64.5   4.5   4.5   0     0     0  
#>  8 Black S…  1957     88     NA    4.8   238   4.5   4.5  14.5  14.5  14.5  14.5
#>  9 Lion an…  1952     83     NA    4.9    15   0     4.5   4.5   4.5   4.5  14.5
#> 10 Emoh Ruo  1985     93     NA    6.1    16   0     0     0     4.5   4.5   4.5
#> # ℹ 990 more rows
#> # ℹ 12 more variables: r7 <dbl>, r8 <dbl>, r9 <dbl>, r10 <dbl>, mpaa <chr>,
#> #   Action <int>, Animation <int>, Comedy <int>, Drama <int>,
#> #   Documentary <int>, Romance <int>, Short <int>
…
